<svg style="position: absolute; width: 0; height: 0;" width="0" height="0" version="1.1"
     xmlns="http://www.w3.org/2000/svg">
  <defs>
    <symbol id="icon-solution" viewBox="0 0 32 32">
      <title>solution</title>
      <path class="path1"
            d="M31.267 11.198c-0.092-0.293-0.319-0.857-0.447-1.168l-0.279-0.681-8.233 9.026-5.627-5.544-3.84-0.381-0.697 1.941c-0.175 0.488-0.699 0.745-1.185 0.588l-0.801-0.275 1.619-4.361 8.964 1.259 5.721-6.446c0.957 0.849 2.14 2.391 2.14 2.391l0.563-0.647c-2.993-4.321-7.913-6.901-13.163-6.901-4.070 0-7.948 1.529-10.92 4.306l-0.32 0.299 5.619 6.824-1.428 3.848 1.713 0.587c0.975 0.316 2.011-0.192 2.357-1.157l0.451-1.257 2.789 0.277 6.173 6.082c0.118 0.116 0.183 0.271 0.184 0.436s-0.063 0.321-0.18 0.438l-0.145 0.145c-0.24 0.24-0.63 0.24-0.87 0.001l-2.834-2.826-0.658 0.66 2.832 2.823c0.117 0.116 0.181 0.271 0.181 0.436s-0.064 0.319-0.18 0.436l-0.15 0.15c-0.24 0.24-0.63 0.24-0.87 0.001l-2.834-2.826-0.658 0.66 2.829 2.82c0.117 0.117 0.181 0.272 0.181 0.437s-0.065 0.32-0.182 0.436c-0.24 0.238-0.63 0.237-0.869-0.002l-2.811-2.811-0.659 0.659 2.811 2.811c0.239 0.239 0.24 0.629 0.002 0.869-0.090 0.091-0.211 0.141-0.339 0.142-0.001 0-0.001 0-0.001 0-0.128 0-0.248-0.050-0.338-0.14l-0.463-0.462c0.008-0.072 0.014-0.145 0.012-0.219-0.007-0.44-0.185-0.851-0.502-1.158l-0.104-0.1c-0.33-0.319-0.76-0.472-1.186-0.462 0-0.005 0.001-0.009 0-0.014-0.007-0.44-0.185-0.851-0.502-1.158l-0.104-0.1c-0.316-0.306-0.733-0.471-1.173-0.464-0.005 0-0.009 0.001-0.014 0.001-0.004-0.426-0.171-0.851-0.501-1.17l-0.104-0.1c-0.316-0.306-0.733-0.471-1.173-0.464-0.005 0-0.009 0.001-0.014 0.001-0.004-0.426-0.171-0.851-0.501-1.171l-0.104-0.1c-0.527-0.51-1.309-0.597-1.924-0.269l-7.256-8.449-0.275 0.743c-0.656 1.774-0.989 3.642-0.989 5.55 0 8.822 7.178 16 16 16s16-7.178 16-16c0-1.638-0.247-3.253-0.733-4.802zM6.040 4.693c2.754-2.429 6.274-3.761 9.96-3.761 3.62 0 7.073 1.304 9.769 3.599l-5.395 6.079-9.212-1.294-0.409 1.101-4.714-5.725zM15.169 24.296l0.104 0.1c0.138 0.133 0.215 0.312 0.218 0.503s-0.068 0.372-0.202 0.51l-0.588 0.608c-0.275 0.284-0.729 0.291-1.013 0.017v0l-0.104-0.1c-0.255-0.247-0.286-0.638-0.091-0.92 0.029-0.026 0.059-0.052 0.087-0.081l0.588-0.608c0.028-0.029 0.053-0.059 0.078-0.089 0.276-0.204 0.668-0.186 0.923 0.061zM12.867 22.361c0.004-0 0.008-0 0.012-0 0.187 0 0.363 0.071 0.498 0.202l0.104 0.1c0.137 0.133 0.215 0.312 0.218 0.503 0.002 0.151-0.043 0.296-0.127 0.418-0.029 0.026-0.059 0.052-0.086 0.081l-0.588 0.607c-0.028 0.029-0.053 0.059-0.078 0.089-0.119 0.088-0.262 0.138-0.413 0.14-0.191 0.004-0.372-0.068-0.51-0.202l-0.104-0.1c-0.255-0.247-0.286-0.638-0.091-0.921 0.029-0.026 0.059-0.052 0.086-0.081l0.588-0.608c0.028-0.029 0.053-0.059 0.078-0.089 0.119-0.088 0.262-0.138 0.413-0.14zM11.076 20.627c0.004-0 0.008-0 0.012-0 0.187 0 0.363 0.071 0.498 0.202l0.104 0.1c0.255 0.247 0.286 0.638 0.091 0.921-0.029 0.026-0.059 0.052-0.086 0.081l-0.588 0.608c-0.028 0.029-0.053 0.059-0.078 0.089-0.119 0.088-0.262 0.138-0.414 0.14-0.19 0.003-0.372-0.068-0.51-0.202l-0.104-0.1c-0.137-0.133-0.215-0.312-0.218-0.503-0.002-0.152 0.043-0.296 0.127-0.418 0.029-0.026 0.058-0.052 0.086-0.080l0.588-0.607c0.028-0.029 0.053-0.059 0.078-0.089 0.119-0.088 0.262-0.138 0.413-0.14zM9.795 19.095l0.104 0.1c0.255 0.247 0.286 0.637 0.091 0.92-0.029 0.026-0.059 0.053-0.087 0.081l-0.588 0.608c-0.028 0.029-0.053 0.059-0.078 0.089-0.276 0.204-0.668 0.186-0.923-0.061l-0.104-0.1c-0.138-0.133-0.215-0.312-0.218-0.503s0.068-0.372 0.202-0.51l0.588-0.608c0.275-0.284 0.729-0.291 1.013-0.017zM16 31.068c-8.309 0-15.068-6.759-15.068-15.068 0-1.527 0.226-3.025 0.672-4.465l6.212 7.234-0.292 0.302c-0.306 0.316-0.471 0.733-0.464 1.173s0.185 0.851 0.502 1.158l0.104 0.1c0.32 0.309 0.733 0.463 1.146 0.463 0.013 0 0.027-0.002 0.040-0.002 0 0.005-0.001 0.010-0 0.014 0.007 0.44 0.185 0.851 0.502 1.157l0.104 0.1c0.31 0.3 0.716 0.464 1.146 0.464 0.009 0 0.018-0 0.028-0 0.005-0 0.009-0.001 0.014-0.001 0.004 0.426 0.171 0.851 0.501 1.17l0.104 0.1c0.31 0.3 0.716 0.464 1.146 0.464 0.009 0 0.018-0 0.028-0 0.005-0 0.009-0.001 0.014-0.001 0.004 0.426 0.171 0.851 0.501 1.171l0.104 0.1c0.32 0.309 0.733 0.463 1.146 0.463 0.431 0 0.862-0.168 1.185-0.501l0.588-0.608c0.015-0.015 0.027-0.031 0.041-0.047l0.215 0.215c0.267 0.266 0.62 0.412 0.996 0.412 0.001 0 0.003 0 0.004 0 0.378-0.001 0.732-0.149 0.998-0.417 0.294-0.297 0.443-0.684 0.448-1.074 0.389-0.004 0.777-0.153 1.073-0.448 0.29-0.288 0.452-0.671 0.457-1.079 0.392-0.004 0.782-0.154 1.080-0.452l0.15-0.15c0.288-0.288 0.449-0.67 0.453-1.078 0.39-0.005 0.78-0.155 1.077-0.452l0.145-0.145c0.294-0.294 0.455-0.685 0.453-1.1s-0.166-0.805-0.462-1.097l-0.116-0.114 7.26-7.958c0.067 0.176 0.117 0.315 0.146 0.406 0.458 1.458 0.69 2.979 0.69 4.522 0 8.309-6.759 15.068-15.068 15.068z"></path>
    </symbol>
    <symbol id="icon-evelopment" viewBox="0 0 32 32">
      <title>evelopment</title>
      <path class="path1"
            d="M7.101 29.302l-0.427-0.307c0 0-0.091-0.066-0.137-0.099-2.874-2.105-4.916-5.025-5.905-8.446-1.185-4.098-0.701-8.417 1.364-12.159s5.461-6.456 9.562-7.641v0c3.525-1.018 7.138-0.829 10.45 0.548l0.48 0.2-15.388 27.906zM11.816 1.544c-3.862 1.116-7.059 3.671-9.004 7.196s-2.401 7.591-1.285 11.45c0.898 3.104 2.716 5.771 5.269 7.734l14.369-26.059c-2.98-1.118-6.201-1.231-9.349-0.321h0z"></path>
      <path class="path2"
            d="M16.006 31.997c-2.335 0-4.659-0.512-6.807-1.522l-0.45-0.211 15.421-27.997 0.417 0.26c3.324 2.072 5.669 5.198 6.781 9.041 1.185 4.096 0.7 8.413-1.365 12.157s-5.461 6.459-9.561 7.643c-1.454 0.42-2.947 0.628-4.437 0.628zM10.049 29.836c3.2 1.378 6.78 1.607 10.135 0.637 3.861-1.115 7.058-3.672 9.004-7.198s2.401-7.591 1.286-11.448c-1-3.457-3.058-6.297-5.965-8.242l-14.46 26.251z"></path>
      <path class="path3"
            d="M8.36 22.084l-6.070-6.070 6.070-6.091v3.861l-2.222 2.229 2.222 2.224v3.847zM3.607 16.013l3.821 3.821v-1.211l-2.607-2.609 2.607-2.615v-1.22l-3.821 3.834z"></path>
      <path class="path4"
            d="M23.324 22.084v-3.847l2.222-2.224-2.222-2.229v-3.861l6.069 6.091-6.069 6.070zM24.256 18.623v1.211l3.821-3.821-3.821-3.834v1.22l2.607 2.615-2.607 2.609z"></path>
    </symbol>
    <symbol id="icon-twitter" viewBox="0 0 32 32">
      <title>twitter</title>
      <path class="path1"
            d="M24.958 9.136c-0.492 0.218-1.020 0.366-1.575 0.432 0.566-0.339 1-0.877 1.206-1.516-0.531 0.314-1.118 0.542-1.743 0.666-0.5-0.534-1.212-0.866-2.002-0.866-1.515 0-2.743 1.228-2.743 2.742 0 0.215 0.024 0.424 0.071 0.625-2.279-0.114-4.3-1.206-5.653-2.866-0.236 0.404-0.371 0.876-0.371 1.379 0 0.952 0.485 1.791 1.22 2.283-0.45-0.015-0.872-0.139-1.242-0.344v0.034c0 1.328 0.946 2.437 2.2 2.69-0.23 0.062-0.472 0.096-0.723 0.096-0.177 0-0.348-0.018-0.516-0.051 0.349 1.090 1.362 1.883 2.562 1.905-0.938 0.735-2.121 1.172-3.406 1.172-0.221 0-0.439-0.013-0.654-0.038 1.214 0.779 2.655 1.234 4.204 1.234 5.046 0 7.804-4.179 7.804-7.804l-0.009-0.355c0.539-0.384 1.005-0.867 1.372-1.417z"></path>
    </symbol>
    <symbol id="icon-sport" viewBox="0 0 32 32">
      <title>sport</title>
      <path class="path1"
            d="M28.195 5.642c-0.606-0.713-1.279-1.377-1.999-1.973l-0.785 0.948c0.574 0.475 1.116 0.997 1.613 1.554l-0.686 2.112h-4.396l-1.359-4.181 1.895-1.377c0.487 0.238 0.963 0.503 1.42 0.793l0.659-1.039c-0.606-0.385-1.244-0.731-1.895-1.030-2.097-0.961-4.338-1.449-6.662-1.449-3.092 0-6.093 0.884-8.678 2.556l0.668 1.033c0.495-0.32 1.006-0.608 1.531-0.865l1.896 1.378-1.359 4.181h-4.396l-0.686-2.112c0.494-0.553 1.032-1.074 1.613-1.555l-0.785-0.948c-3.689 3.053-5.804 7.548-5.804 12.331 0 1.256 0.146 2.506 0.434 3.717l1.197-0.285c-0.143-0.602-0.247-1.215-0.314-1.833l1.837-1.334 3.557 2.584-1.359 4.181h-2.343c-0.2-0.37-0.388-0.749-0.557-1.14l-1.128 0.491c2.348 5.393 7.439 9.056 13.286 9.559l0.106-1.226c-0.55-0.047-1.092-0.127-1.625-0.233l-0.647-1.991 3.557-2.584 3.557 2.584-0.647 1.991c-0.631 0.126-1.274 0.213-1.927 0.256l0.081 1.228c5.342-0.351 10.131-3.338 12.811-7.992 0.328-0.569 0.623-1.165 0.878-1.77l-1.134-0.477c-0.187 0.443-0.397 0.88-0.627 1.304h-2.344l-1.359-4.181 3.557-2.584 1.838 1.335c-0.067 0.617-0.172 1.232-0.315 1.833l1.197 0.285c0.185-0.779 0.313-1.58 0.379-2.381 0.037-0.442 0.055-0.891 0.055-1.337 0-3.793-1.351-7.472-3.805-10.358zM30.768 16.14l-1.396-1.014-1.942-6.223 0.516-1.587c1.827 2.513 2.823 5.556 2.823 8.684 0 0.047-0.001 0.093-0.001 0.14zM10.836 2.159c1.64-0.612 3.385-0.928 5.164-0.928 1.786 0 3.518 0.313 5.164 0.928l-1.504 1.093-7.319 0-1.504-1.093zM12.588 4.483l6.824-0 1.396 4.295-2.462 3.149h-4.691l-2.463-3.149 1.396-4.295zM16 19.923l-3.557-2.584 1.359-4.181h4.396l1.359 4.181-3.557 2.584zM1.231 16c0-3.163 1.002-6.188 2.822-8.687l0.516 1.59-1.942 6.223-1.395 1.014c-0-0.046-0.002-0.093-0.002-0.139zM3.874 15.266l1.794-5.751h4.538l2.463 3.149-1.428 4.394-3.675 0.891-3.693-2.683zM3.754 24.261h1.834l5.604 4.364 0.488 1.502c-3.231-0.985-6.032-3.055-7.927-5.867zM11.733 27.485l-5.214-4.060 1.395-4.294 3.675-0.891 3.796 2.758-0 3.835-3.652 2.653zM28.244 24.261c-1.911 2.832-4.713 4.887-7.925 5.866l0.488-1.502 5.604-4.364h1.832zM25.481 23.425l-5.214 4.060-3.652-2.653 0-3.835 3.796-2.758 3.675 0.891 1.395 4.294zM24.434 17.948l-3.675-0.891-1.428-4.394 2.462-3.149h4.538l1.794 5.751-3.693 2.683z"></path>
    </symbol>
    <symbol id="icon-location" viewBox="0 0 32 32">
      <title>location</title>
      <path class="path1"
            d="M16.086 8.741h-0.172c-1.887 0-3.966 1.265-4.243 3.874v0.533c0 0.022 0.008 0.222 0.019 0.322 0.156 1.243 1.136 2.564 1.869 3.807 0.788 1.332 1.645 2.642 2.456 3.952 0 0 1.64-2.62 2.428-3.952 0.733-1.243 1.713-2.564 1.869-3.807 0.011-0.1 0.019-0.3 0.019-0.322v-0.533c-0.278-2.608-2.356-3.874-4.243-3.874zM15.972 15.032c-1.188 0-2.151-0.963-2.151-2.151s0.963-2.151 2.151-2.151c1.188 0 2.151 0.963 2.151 2.151s-0.963 2.151-2.151 2.151z"></path>
    </symbol>
    <symbol id="icon-linkedin" viewBox="0 0 32 32">
      <title>linkedin</title>
      <path class="path1"
            d="M21.463 15.152v4.040h-2.342v-3.769c0-0.947-0.339-1.593-1.186-1.593-0.647 0-1.032 0.435-1.202 0.857-0.062 0.151-0.078 0.36-0.078 0.571v3.934h-2.343c0 0 0.032-6.384 0-7.045h2.343v0.999c-0.005 0.008-0.011 0.016-0.015 0.023h0.015v-0.023c0.311-0.479 0.867-1.164 2.111-1.164 1.541 0 2.697 1.007 2.697 3.171zM11.862 8.75c-0.801 0-1.326 0.526-1.326 1.217 0 0.676 0.509 1.218 1.295 1.218h0.016c0.817 0 1.325-0.542 1.325-1.218-0.015-0.691-0.508-1.217-1.31-1.217zM10.676 19.191h2.342v-7.045h-2.342v7.045z"></path>
    </symbol>
    <symbol id="icon-hamburger" viewBox="0 0 32 32">
      <title>hamburger</title>
      <path class="path1" d="M32 2.8h-32v-1.6h32v1.6z"></path>
      <path class="path2" d="M32 16.8h-32v-1.6h32v1.6z"></path>
      <path class="path3" d="M32 30.8h-32v-1.6h32v1.6z"></path>
    </symbol>
    <symbol id="icon-fb" viewBox="0 0 32 32">
      <title>fb</title>
      <path class="path1"
            d="M18.878 15.53l-1.825 0.001-0.001 6.681h-2.504v-6.681h-1.67v-2.302l1.67-0.001-0.003-1.356c0-1.879 0.509-3.022 2.721-3.022h1.843v2.304h-1.152c-0.862 0-0.903 0.321-0.903 0.921l-0.003 1.152h2.071l-0.244 2.302z"></path>
    </symbol>
    <symbol id="icon-earth" viewBox="0 0 32 32">
      <title>earth</title>
      <path class="path1"
            d="M16 0c-8.822 0-16 7.178-16 16s7.178 16 16 16 16-7.178 16-16-7.178-16-16-16zM29.124 10.231l-0.147-0.006-0.278 0.038v-0.633l0.090-0.101c0.119 0.23 0.23 0.464 0.335 0.701zM26.45 6.217c0.245 0.26 0.481 0.527 0.706 0.804l-0.281 0.418-0.981-0.009-0.061-0.204 0.615-0.312 0.003-0.696zM16 31.068c-8.309 0-15.068-6.759-15.068-15.068 0-3.139 0.965-6.056 2.613-8.471 0 0-0.753 2.115-0.595 2.735s0.54 1.259 0.54 1.259v1.131l0.57 0.972 0.463 0.071 0.060-0.333-0.547-0.843-0.107-0.82h0.32l0.135 0.843 0.79 1.153-0.204 0.372 0.502 0.768 1.248 0.309v-0.202l0.499 0.071-0.047 0.356 0.392 0.072 0.606 0.165 0.856 0.975 1.093 0.083 0.107 0.891-0.748 0.523-0.035 0.796-0.107 0.487 1.082 1.354 0.083 0.464c0 0 0.392 0.106 0.44 0.106s0.879 0.63 0.879 0.63v2.447l0.297 0.083-0.202 1.129 0.499 0.666-0.092 1.119 0.659 1.159 0.847 0.74 0.851 0.015 0.083-0.274-0.625-0.527 0.036-0.261 0.112-0.32 0.024-0.327-0.423-0.013-0.213-0.268 0.351-0.338 0.047-0.255-0.392-0.112 0.023-0.237 0.559-0.085 0.85-0.408 0.285-0.523 0.891-1.141-0.203-0.892 0.274-0.475 0.82 0.025 0.552-0.437 0.178-1.721 0.612-0.777 0.107-0.499-0.558-0.179-0.368-0.604-1.259-0.013-0.998-0.381-0.047-0.712-0.333-0.583-0.903-0.013-0.522-0.819-0.463-0.226-0.024 0.25-0.843 0.050-0.309-0.43-0.88-0.179-0.725 0.838-1.141-0.194-0.083-1.286-0.832-0.142 0.334-0.631-0.095-0.362-1.094 0.731-0.688-0.084-0.245-0.538 0.15-0.554 0.379-0.699 0.873-0.442 1.687-0.001-0.005 0.515 0.606 0.282-0.048-0.879 0.437-0.44 0.882-0.579 0.060-0.408 0.879-0.915 0.935-0.518-0.083-0.068 0.633-0.596 0.232 0.062 0.106 0.133 0.24-0.267 0.059-0.026-0.263-0.037-0.267-0.089v-0.256l0.142-0.116h0.312l0.143 0.063 0.124 0.25 0.151-0.023v-0.022l0.044 0.015 0.438-0.067 0.062-0.214 0.25 0.063v0.232l-0.232 0.16h0.001l0.034 0.254 0.794 0.245c0 0 0.001 0.003 0.002 0.010l0.183-0.015 0.012-0.344-0.629-0.286-0.036-0.165 0.522-0.178 0.023-0.5-0.546-0.333-0.036-0.843-0.748 0.368h-0.273l0.072-0.641-1.019-0.24-0.422 0.319v0.972l-0.758 0.24-0.304 0.633-0.329 0.053v-0.81l-0.713-0.099-0.356-0.232-0.144-0.525 1.275-0.746 0.624-0.19 0.063 0.419 0.347-0.018 0.027-0.211 0.363-0.052 0.006-0.074-0.156-0.065-0.036-0.223 0.447-0.038 0.27-0.281 0.015-0.021 0.003 0.001 0.082-0.085 0.939-0.119 0.415 0.352-1.089 0.58 1.386 0.327 0.179-0.463h0.606l0.214-0.404-0.428-0.107v-0.511l-1.343-0.595-0.927 0.107-0.523 0.274 0.036 0.665-0.547-0.083-0.084-0.368 0.524-0.475-0.95-0.047-0.273 0.083-0.119 0.32 0.356 0.060-0.071 0.356-0.606 0.036-0.095 0.237-0.879 0.024c0 0-0.024-0.499-0.060-0.499s0.689-0.012 0.689-0.012l0.524-0.511-0.286-0.143-0.38 0.369-0.631-0.036-0.38-0.523h-0.808l-0.843 0.63h0.773l0.071 0.226-0.201 0.186 0.856 0.024 0.131 0.309-0.963-0.036-0.047-0.238-0.606-0.131-0.321-0.178-0.721 0.006-1.412 0.071c2.631-2.242 6.039-3.597 9.758-3.597 3.883 0 7.427 1.477 10.102 3.897l-0.608 0.463-0.17 0.304-0.659 0.258-0.278 0.302 0.064 0.352 0.34 0.047 0.205 0.513 0.587-0.237 0.097 0.686h-0.177l-0.482-0.071-0.534 0.090-0.517 0.731-0.74 0.116-0.107 0.633 0.312 0.074-0.090 0.407-0.734-0.147-0.674 0.147-0.143 0.375 0.117 0.787 0.395 0.185 0.663-0.004 0.448-0.040 0.137-0.356 0.7-0.909 0.461 0.094 0.454-0.41 0.085 0.32 1.116 0.753-0.137 0.183-0.503-0.027 0.194 0.274 0.309 0.068 0.363-0.151-0.008-0.437 0.161-0.081-0.129-0.137-0.745-0.415-0.196-0.552h0.619l0.198 0.196 0.533 0.46 0.022 0.556 0.552 0.588 0.206-0.806 0.383-0.209 0.072 0.659 0.374 0.41 0.745-0.013 0.654-0.339c0.178 0.453 0.334 0.917 0.467 1.39l-0.734 0.083-0.078 0.072h-1.14l-0.695-0.517-0.731 0.071v0.446h-0.231l-0.25-0.178-1.266-0.321v-0.82l-1.605 0.125-0.497 0.267h-0.637l-0.312-0.031-0.773 0.429v0.808l-1.581 1.141 0.131 0.487h0.32l-0.084 0.464-0.226 0.083-0.012 1.213 1.366 1.556h0.595l0.036-0.095h1.069l0.308-0.285h0.606l0.333 0.333 0.904 0.094-0.12 1.202 1.003 1.771-0.528 1.009 0.036 0.476 0.416 0.415v1.143l0.546 0.734v0.95h0.472c0 0 0.81-0.285 0.934-0.409s0.421-0.322 0.421-0.322l0.159-0.134c-2.687 4.15-7.356 6.901-12.657 6.901zM8.355 5.469h-0.704l0.001-0.286v-0.026h0.312l0.027-0.107h0.511v0.223l-0.147 0.196zM8.49 6.137l-0.704 0.044-0.134-0.16 0.499-0.142c0 0 0.312-0.053 0.339-0.053s0 0.312 0 0.312zM8.972 7.518l0.374-0.178 0.338 0.081-0.117 0.454-0.365 0.116-0.231-0.473zM10.957 8.587v0.294h-0.855l-0.32-0.089 0.080-0.205 0.411-0.17h0.561v0.17h0.123zM11.351 8.998v0.285l-0.214 0.138-0.267 0.049c0 0 0-0.428 0-0.472h0.481zM11.11 8.882v-0.339l0.294 0.268-0.294 0.071zM11.244 9.567v0.277l-0.204 0.205h-0.454l0.071-0.311 0.215-0.019 0.044-0.107 0.329-0.046zM9.783 9.354l0.329-0.356h0.472l-0.606 0.847-0.25-0.134 0.054-0.356zM12.046 9.47v0.277h-0.454l-0.124-0.179v-0.258h0.036l0.543 0.16zM11.627 9.089l0.129-0.136 0.219 0.136-0.175 0.144-0.173-0.144z"></path>
      <path class="path2"
            d="M23.18 7.37l0.030 0.231-0.347 0.072-0.046 0.493h0.415l0.552-0.053 0.285-0.339-0.303-0.118-0.166-0.191-0.249-0.404-0.119-0.571-0.468 0.096-0.131 0.201v0.227l0.226 0.154z"></path>
      <path class="path3" d="M22.781 7.56l0.025-0.309-0.275-0.119-0.385 0.089-0.285 0.458v0.297h0.333z"></path>
      <path class="path4"
            d="M14.866 8.871l-0.085 0.218h-0.41v0.211h0.097c0 0 0.006 0.045 0.014 0.104l0.251-0.021 0.157-0.097 0.041-0.197 0.203-0.017 0.080-0.165-0.187-0.038-0.163 0.003z"></path>
      <path class="path5" d="M13.811 9.255l-0.016 0.207 0.297-0.025 0.031-0.208-0.178-0.14z"></path>
    </symbol>
    <symbol id="icon-design" viewBox="0 0 32 32">
      <title>design</title>
      <path class="path1" d="M15.535 4.226h0.932v3.154h-0.932v-3.154z"></path>
      <path class="path2" d="M5.018 14.666h3.153v0.932h-3.153v-0.932z"></path>
      <path class="path3" d="M7.505 7.943l0.657-0.662 2.238 2.221-0.657 0.662-2.238-2.221z"></path>
      <path class="path4" d="M21.678 9.503l2.238-2.222 0.657 0.661-2.238 2.222-0.657-0.661z"></path>
      <path class="path5" d="M23.889 14.635h3.122v0.932h-3.122v-0.932z"></path>
      <path class="path6"
            d="M30.744 9.776c-0.806-1.906-1.96-3.618-3.429-5.087s-3.18-2.624-5.086-3.43c-1.973-0.835-4.069-1.258-6.228-1.258s-4.255 0.423-6.229 1.258c-1.905 0.806-3.617 1.96-5.086 3.43s-2.623 3.181-3.429 5.087c-0.835 1.974-1.258 4.070-1.258 6.231 0 4.028 1.501 7.877 4.226 10.838 2.707 2.941 6.399 4.754 10.397 5.106l0.507 0.045v-6.717h-0.466c-0.764 0-0.862-0.514-0.862-0.962v-1.964c0.001-1.875-0.586-2.688-1.483-3.719l-0.013-0.014c-0.198-0.216-0.615-0.819-0.699-0.953l-0.009-0.015c-0.442-0.757-0.675-1.617-0.675-2.486 0-1.338 0.525-2.6 1.477-3.553s2.214-1.477 3.558-1.477l0.039-0c2.747 0 4.982 2.245 4.982 5.005 0 0.845-0.228 1.702-0.66 2.48l-0.029 0.054c-0.105 0.17-0.48 0.704-0.617 0.841l-0.055 0.055-0.045 0.063c-0.121 0.169-0.23 0.316-0.336 0.459-0.674 0.907-1.119 1.507-1.115 3.262v1.965c0 0.639-0.298 0.962-0.885 0.962h-0.466v6.722l0.504-0.041c4.019-0.327 7.735-2.13 10.465-5.078 2.747-2.966 4.26-6.829 4.26-10.875 0-2.161-0.423-4.257-1.258-6.231zM27.057 26.248c-2.457 2.653-5.762 4.321-9.353 4.733v-4.816c0.581-0.122 0.902-0.464 1.076-0.761 0.239-0.407 0.274-0.856 0.274-1.088v-1.966c-0.003-1.446 0.29-1.841 0.931-2.705 0.108-0.146 0.22-0.296 0.346-0.472 0.229-0.229 0.677-0.883 0.775-1.049l0.026-0.047 0.002-0.005c0.508-0.916 0.777-1.93 0.777-2.932 0-3.274-2.653-5.937-5.914-5.937l-0.047 0c-1.586 0-3.082 0.622-4.21 1.75s-1.75 2.625-1.75 4.212c0 1.034 0.277 2.056 0.801 2.954l0.021 0.035c0.083 0.133 0.545 0.809 0.801 1.089l0.005 0.006c0.776 0.892 1.252 1.519 1.251 3.104v1.964c0 0.994 0.498 1.668 1.328 1.847v4.806c-3.57-0.434-6.852-2.111-9.286-4.756-2.566-2.789-3.98-6.414-3.98-10.207 0-2.035 0.398-4.009 1.184-5.868 0.759-1.795 1.845-3.407 3.229-4.792s2.995-2.471 4.79-3.23c1.858-0.786 3.831-1.185 5.865-1.185s4.008 0.399 5.865 1.185c1.794 0.759 3.406 1.846 4.79 3.23s2.47 2.996 3.229 4.792c0.786 1.858 1.184 3.832 1.184 5.868 0 3.811-1.425 7.448-4.012 10.242z"></path>
      <path class="path7"
            d="M17.057 19.667c0.271-0.928 1.197-4.085 1.752-5.722l0.229-0.675-0.71 0.062c-0.042 0.004-0.083 0.005-0.123 0.005-0.466 0-0.773-0.249-1.071-0.491-0.319-0.259-0.649-0.526-1.185-0.526-0.512 0-0.833 0.275-1.143 0.54-0.284 0.242-0.577 0.493-1.003 0.493-0.040 0-0.080-0.002-0.12-0.006l-0.694-0.071 0.2 0.668c0.498 1.661 1.466 4.805 1.751 5.73l0.101 0.329h1.92l0.098-0.336zM15.728 19.070c-0.325-1.055-1.014-3.298-1.479-4.836 0.526-0.122 0.898-0.44 1.162-0.666 0.304-0.26 0.4-0.317 0.537-0.317 0.197 0 0.319 0.092 0.598 0.318 0.271 0.22 0.651 0.528 1.191 0.648-0.5 1.54-1.165 3.789-1.476 4.852h-0.533z"></path>
    </symbol>
    <symbol id="icon-cross" viewBox="0 0 32 32">
      <title>cross</title>
      <path class="path1"
            d="M29.299 3.674l-0.972-0.972-12.326 12.326-12.326-12.326-0.972 0.972 12.326 12.326-12.326 12.326 0.972 0.972 12.326-12.326 12.326 12.326 0.972-0.972-12.326-12.326z"></path>
    </symbol>
    <symbol id="icon-betting" viewBox="0 0 32 32">
      <title>betting</title>
      <path class="path1"
            d="M16.007 0c-8.826 0-16.007 7.181-16.007 16.007 0 4.040 1.509 7.898 4.25 10.863 2.725 2.948 6.421 4.755 10.407 5.088l0.505 0.042-0.006-7.171-0.354-0.087c-2.25-0.556-3.822-2.563-3.822-4.882v-10.893h10.053v10.893c-0 2.319-1.572 4.327-3.822 4.882l-0.354 0.087-0.001 7.171 0.505-0.042c3.985-0.334 7.68-2.141 10.404-5.089 2.74-2.965 4.249-6.822 4.249-10.861 0-8.826-7.181-16.007-16.007-16.007zM27.080 26.236c-2.45 2.651-5.734 4.323-9.292 4.742l0-5.43c2.477-0.774 4.177-3.063 4.177-5.689v-0.403c2.809-0.238 5.023-2.599 5.023-5.468v-4.167h-5.023v-1.787h-11.918v1.787h-5.023v4.167c0 2.87 2.214 5.231 5.023 5.468v0.402c0 2.626 1.7 4.915 4.177 5.689l0.004 5.43c-3.559-0.418-6.843-2.090-9.294-4.741-2.581-2.792-4.003-6.425-4.003-10.23 0-8.312 6.762-15.075 15.075-15.075s15.075 6.762 15.075 15.075c0 3.804-1.421 7.437-4.001 10.229zM21.966 10.753h4.091v3.235c0 2.355-1.796 4.299-4.091 4.533v-7.768zM10.048 18.522c-2.295-0.234-4.091-2.178-4.091-4.533v-3.235h4.091v7.768z"></path>
      <path class="path2"
            d="M16.007 16.134l2.1 1.22-0.174-0.988c0 0-0.156-0.884-0.232-1.317l1.627-1.68-2.324-0.259-0.975-2.189-1.083 2.189-2.255 0.264 1.623 1.676-0.407 2.305 2.1-1.22zM15.557 13.977l0.428-0.864 0.385 0.865 0.966 0.108-0.434 0.448c-0.212 0.158-0.17 0.395-0.119 0.686l0.057 0.321-0.833-0.484-0.833 0.484 0.141-0.798-0.641-0.662 0.884-0.103z"></path>
    </symbol>
    <symbol id="icon-behance" viewBox="0 0 32 32">
      <title>behance</title>
      <path class="path1"
            d="M14.634 14.837c0.391-0.185 0.683-0.423 0.882-0.713 0.197-0.29 0.296-0.654 0.296-1.089 0-0.402-0.066-0.742-0.198-1.014-0.135-0.276-0.323-0.495-0.564-0.659-0.245-0.165-0.534-0.285-0.873-0.356-0.341-0.074-0.714-0.11-1.127-0.11h-4.074v8.641h4.189c0.387 0 0.765-0.049 1.129-0.145 0.368-0.097 0.697-0.245 0.983-0.448 0.284-0.201 0.514-0.461 0.684-0.783 0.168-0.317 0.252-0.695 0.252-1.133 0-0.541-0.128-1.002-0.391-1.387-0.261-0.383-0.655-0.652-1.187-0.805zM10.878 12.368h1.78c0.168 0 0.333 0.012 0.489 0.043 0.16 0.027 0.297 0.078 0.419 0.152 0.123 0.071 0.22 0.172 0.293 0.301 0.071 0.129 0.106 0.295 0.106 0.496 0 0.362-0.106 0.626-0.325 0.786-0.221 0.162-0.5 0.242-0.837 0.242h-1.925v-2.019zM14.2 17.483c-0.077 0.146-0.182 0.261-0.309 0.345-0.127 0.087-0.278 0.146-0.448 0.183-0.168 0.038-0.346 0.054-0.534 0.054h-2.030v-2.38h2.068c0.41 0 0.742 0.094 0.992 0.284 0.249 0.192 0.375 0.508 0.375 0.954 0 0.227-0.037 0.415-0.114 0.56z"></path>
      <path class="path2" d="M18.147 11.476h3.503v0.853h-3.503v-0.853z"></path>
      <path class="path3"
            d="M22.894 15.43c-0.113-0.445-0.295-0.841-0.55-1.188s-0.58-0.625-0.976-0.829c-0.397-0.208-0.861-0.309-1.39-0.309-0.479 0-0.912 0.085-1.305 0.255s-0.73 0.403-1.014 0.698c-0.284 0.293-0.499 0.643-0.655 1.049-0.153 0.404-0.231 0.841-0.231 1.309 0 0.484 0.075 0.93 0.225 1.334 0.151 0.406 0.363 0.751 0.635 1.043 0.28 0.291 0.612 0.514 1.010 0.673 0.398 0.157 0.842 0.237 1.335 0.237 0.707 0 1.314-0.162 1.812-0.487 0.503-0.324 0.873-0.861 1.116-1.615h-1.513c-0.059 0.194-0.21 0.38-0.459 0.555-0.251 0.175-0.551 0.262-0.898 0.262-0.482 0-0.854-0.126-1.111-0.378-0.258-0.251-0.426-0.72-0.426-1.214h4.515c0.032-0.485-0.007-0.949-0.12-1.393zM18.498 15.739c0.008-0.122 0.034-0.26 0.079-0.412 0.044-0.156 0.119-0.302 0.23-0.441 0.112-0.136 0.257-0.252 0.435-0.345 0.182-0.094 0.409-0.14 0.684-0.14 0.422 0 0.768 0.122 0.972 0.348 0.205 0.228 0.355 0.552 0.396 0.99h-2.796z"></path>
    </symbol>
    <symbol id="icon-apps" viewBox="0 0 32 32">
      <title>apps</title>
      <path class="path1"
            d="M16.005 0c-8.825 0-16.005 7.18-16.005 16.005 0 4.052 1.517 7.918 4.272 10.886 2.74 2.952 6.453 4.752 10.454 5.069l0.503 0.040-0.001-6.982h-3.134c-0.585 0-1.062-0.476-1.062-1.062v-1.58h9.945v1.58c0 0.585-0.476 1.062-1.062 1.062h-3.134l-0.001 6.982 0.503-0.040c4.001-0.317 7.713-2.117 10.454-5.069 2.755-2.968 4.272-6.834 4.272-10.886 0-8.825-7.18-16.005-16.005-16.005zM20.978 6.721h-9.945v-0.142c0-0.585 0.476-1.062 1.062-1.062h7.821c0.585 0 1.062 0.476 1.062 1.062v0.142zM11.033 21.444v-13.791h9.945v13.791h-9.945zM27.055 26.257c-2.465 2.656-5.766 4.322-9.341 4.725l0.001-5.032h2.201c1.1 0 1.994-0.895 1.994-1.994v-17.378c0-1.1-0.895-1.994-1.994-1.994h-7.821c-1.1 0-1.994 0.895-1.994 1.994v17.378c0 1.1 0.895 1.994 1.994 1.994h2.201l0.001 5.032c-3.574-0.403-6.875-2.069-9.341-4.725-2.595-2.795-4.023-6.436-4.023-10.252 0-8.311 6.762-15.073 15.073-15.073s15.073 6.762 15.073 15.073c0 3.816-1.429 7.457-4.023 10.252z"></path>
      <path class="path2"
            d="M16.005 22.874c-0.428 0-0.777 0.349-0.777 0.777s0.349 0.777 0.777 0.777c0.428 0 0.777-0.349 0.777-0.777s-0.349-0.777-0.777-0.777z"></path>
    </symbol>
    <symbol id="icon-Skype" viewBox="0 0 32 32">
      <title>Skype</title>
      <path class="path1"
            d="M20.583 16.724c0.037-0.236 0.057-0.478 0.057-0.724 0-2.562-2.077-4.64-4.64-4.64-0.246 0-0.488 0.020-0.724 0.057-0.427-0.264-0.932-0.417-1.472-0.417-1.548 0-2.804 1.255-2.804 2.804 0 0.54 0.153 1.044 0.417 1.472-0.037 0.236-0.057 0.477-0.057 0.724 0 2.563 2.077 4.639 4.639 4.639 0.246 0 0.488-0.019 0.724-0.056 0.428 0.264 0.932 0.417 1.472 0.417 1.549 0 2.804-1.255 2.804-2.804 0-0.541-0.153-1.044-0.417-1.472zM18.203 18.11c-0.196 0.283-0.485 0.503-0.861 0.662s-0.824 0.238-1.339 0.238c-0.618 0-1.129-0.108-1.532-0.326-0.286-0.156-0.519-0.366-0.698-0.627s-0.27-0.518-0.27-0.768c0-0.147 0.056-0.276 0.166-0.38 0.111-0.105 0.253-0.158 0.421-0.158 0.138 0 0.256 0.041 0.352 0.124s0.176 0.201 0.241 0.359c0.079 0.183 0.164 0.335 0.255 0.457 0.090 0.12 0.217 0.221 0.382 0.299 0.163 0.079 0.379 0.118 0.65 0.118 0.371 0 0.67-0.080 0.9-0.238 0.23-0.16 0.341-0.354 0.341-0.589 0-0.187-0.060-0.336-0.182-0.452-0.123-0.117-0.283-0.207-0.481-0.269s-0.465-0.13-0.8-0.2c-0.449-0.098-0.824-0.212-1.128-0.343s-0.547-0.311-0.727-0.538c-0.18-0.229-0.27-0.514-0.27-0.852 0-0.322 0.095-0.61 0.285-0.86s0.464-0.443 0.822-0.577c0.357-0.134 0.776-0.201 1.257-0.201 0.385 0 0.717 0.044 0.999 0.133s0.515 0.207 0.702 0.355c0.186 0.147 0.323 0.303 0.41 0.466s0.13 0.323 0.13 0.479c0 0.145-0.056 0.276-0.166 0.392s-0.25 0.174-0.413 0.174c-0.147 0-0.263-0.034-0.343-0.106-0.078-0.070-0.16-0.181-0.249-0.335-0.112-0.216-0.247-0.384-0.403-0.504-0.152-0.118-0.403-0.179-0.752-0.179-0.323 0-0.582 0.066-0.777 0.195-0.196 0.131-0.29 0.283-0.291 0.462 0 0.112 0.032 0.206 0.097 0.287s0.157 0.152 0.274 0.211c0.117 0.060 0.237 0.107 0.357 0.141 0.121 0.034 0.323 0.084 0.603 0.15 0.351 0.076 0.67 0.16 0.956 0.253s0.53 0.204 0.731 0.338c0.203 0.133 0.362 0.302 0.475 0.506s0.171 0.455 0.171 0.749c0 0.354-0.099 0.673-0.295 0.955z"></path>
    </symbol>
    <symbol id="icon-Letter" viewBox="0 0 32 32">
      <title>Letter</title>
      <path class="path1"
            d="M21 12.55h-10v6.901h10v-6.901zM20.341 18.758l-3.271-2.196-1.074 1.024-1.084-1.033-3.26 2.204 2.931-2.534-3.018-3.009 4.431 3.688 4.431-3.688-3.025 3.017 2.938 2.526z"></path>
    </symbol>
    <symbol id="icon-Fb" viewBox="0 0 32 32">
      <title>Fb</title>
      <path class="path1"
            d="M18.878 15.53l-1.825 0.001-0.001 6.681h-2.504v-6.681h-1.67v-2.302l1.67-0.001-0.003-1.356c0-1.879 0.509-3.022 2.721-3.022h1.843v2.304h-1.152c-0.862 0-0.903 0.321-0.903 0.921l-0.003 1.152h2.071l-0.244 2.302z"></path>
    </symbol>
  </defs>
</svg>
